%YAML 1.1
%TAG !u! tag:unity3d.com,2011:
--- !u!21 &2100000
Material:
  serializedVersion: 6
  m_ObjectHideFlags: 0
  m_CorrespondingSourceObject: {fileID: 0}
  m_PrefabInstance: {fileID: 0}
  m_PrefabAsset: {fileID: 0}
  m_Name: LIGHT YOS
  m_Shader: {fileID: 4800000, guid: c81448b71e7890c4389e330fb8a9bf81, type: 3}
  m_ShaderKeywords: BlendAdd Clip_OFF FrameBlend_OFF SoftParticles_OFF VertLight_OFF
  m_LightmapFlags: 1
  m_EnableInstancingVariants: 1
  m_DoubleSidedGI: 0
  m_CustomRenderQueue: -1
  stringTagMap: {}
  disabledShaderPasses: []
  m_SavedProperties:
    serializedVersion: 3
    m_TexEnvs:
    - _BumpMap:
        m_Texture: {fileID: 0}
        m_Scale: {x: 1, y: 1}
        m_Offset: {x: 0, y: 0}
    - _DetailAlbedoMap:
        m_Texture: {fileID: 0}
        m_Scale: {x: 1, y: 1}
        m_Offset: {x: 0, y: 0}
    - _DetailMask:
        m_Texture: {fileID: 0}
        m_Scale: {x: 1, y: 1}
        m_Offset: {x: 0, y: 0}
    - _DetailNormalMap:
        m_Texture: {fileID: 0}
        m_Scale: {x: 1, y: 1}
        m_Offset: {x: 0, y: 0}
    - _DistortTex:
        m_Texture: {fileID: 2800000, guid: 959861c33862ded44aca231d85a12ccc, type: 3}
        m_Scale: {x: 10, y: 0.3}
        m_Offset: {x: 0, y: 0}
    - _DistortTex1:
        m_Texture: {fileID: 2800000, guid: 959861c33862ded44aca231d85a12ccc, type: 3}
        m_Scale: {x: 1, y: 0}
        m_Offset: {x: 0, y: 0}
    - _DistortTex2:
        m_Texture: {fileID: 2800000, guid: 959861c33862ded44aca231d85a12ccc, type: 3}
        m_Scale: {x: 7, y: 1.2}
        m_Offset: {x: 0, y: 0}
    - _DistortText2:
        m_Texture: {fileID: 2800000, guid: 2daa246fc13f9b147b367da3cd1aeca1, type: 3}
        m_Scale: {x: 1, y: 1}
        m_Offset: {x: 0, y: 0}
    - _Distorttext1:
        m_Texture: {fileID: 2800000, guid: 2daa246fc13f9b147b367da3cd1aeca1, type: 3}
        m_Scale: {x: 1, y: 1}
        m_Offset: {x: 0, y: 0}
    - _EmissionMap:
        m_Texture: {fileID: 0}
        m_Scale: {x: 1, y: 1}
        m_Offset: {x: 0, y: 0}
    - _MainTex:
        m_Texture: {fileID: 2800000, guid: deb3a20dfe298274f826c00f582dcca2, type: 3}
        m_Scale: {x: 1, y: 1}
        m_Offset: {x: 0, y: 0}
    - _Mask:
        m_Texture: {fileID: 2800000, guid: 959861c33862ded44aca231d85a12ccc, type: 3}
        m_Scale: {x: 1, y: 1}
        m_Offset: {x: 0, y: 0}
    - _MetallicGlossMap:
        m_Texture: {fileID: 0}
        m_Scale: {x: 1, y: 1}
        m_Offset: {x: 0, y: 0}
    - _OcclusionMap:
        m_Texture: {fileID: 0}
        m_Scale: {x: 1, y: 1}
        m_Offset: {x: 0, y: 0}
    - _ParallaxMap:
        m_Texture: {fileID: 0}
        m_Scale: {x: 1, y: 1}
        m_Offset: {x: 0, y: 0}
    - _TextureSample0:
        m_Texture: {fileID: 2800000, guid: 83e5dc69f2d24784ca22373935cf2664, type: 3}
        m_Scale: {x: 1, y: 1}
        m_Offset: {x: 0, y: 0}
    - _maintex:
        m_Texture: {fileID: 2800000, guid: deb3a20dfe298274f826c00f582dcca2, type: 3}
        m_Scale: {x: 1, y: 1}
        m_Offset: {x: 0, y: 0}
    - _texcoord:
        m_Texture: {fileID: 0}
        m_Scale: {x: 1, y: 1}
        m_Offset: {x: 0, y: 0}
    m_Floats:
    - DstMode: 1
    - SrcMode: 5
    - _AlphaPow: -1
    - _BumpScale: 1
    - _Cutoff: 0.7
    - _Cutout: 0.2
    - _DetailNormalMapScale: 1
    - _DstBlend: 0
    - _Glossiness: 0.5
    - _InvFade: 1
    - _MaskPow: 0
    - _Metallic: 0
    - _Mode: 0
    - _OcclusionStrength: 1
    - _Parallax: 0.02
    - _Scale: 1
    - _Scale2: 4.38
    - _Speed: 3.22
    - _Speed2: 1
    - _SrcBlend: 1
    - _UVSec: 0
    - _ZWrite: 1
    - __dirty: 0
    m_Colors:
    - _Color: {r: 1, g: 1, b: 1, a: 1}
    - _Color0: {r: 191.74902, g: 25.09804, b: 114.44706, a: 1}
    - _DistortSpeed: {r: 0, g: 0, b: 0, a: 0}
    - _Distortspeed: {r: 0, g: 0, b: 0, a: 0}
    - _EmissionColor: {r: 0, g: 0, b: 0, a: 1}
    - _Tiling: {r: 800, g: 800, b: 8, a: 8}
    - _TintColor: {r: 23.958443, g: 1.2422895, b: 33.89676, a: 1}
