%YAML 1.1
%TAG !u! tag:unity3d.com,2011:
--- !u!1 &5847132437030763871
GameObject:
  m_ObjectHideFlags: 0
  m_CorrespondingSourceObject: {fileID: 0}
  m_PrefabInstance: {fileID: 0}
  m_PrefabAsset: {fileID: 0}
  serializedVersion: 6
  m_Component:
  - component: {fileID: 5847132437030763865}
  - component: {fileID: 5847132437030763864}
  m_Layer: 0
  m_Name: strawberry
  m_TagString: Untagged
  m_Icon: {fileID: 0}
  m_NavMeshLayer: 0
  m_StaticEditorFlags: 0
  m_IsActive: 1
--- !u!4 &5847132437030763865
Transform:
  m_ObjectHideFlags: 0
  m_CorrespondingSourceObject: {fileID: 0}
  m_PrefabInstance: {fileID: 0}
  m_PrefabAsset: {fileID: 0}
  m_GameObject: {fileID: 5847132437030763871}
  m_LocalRotation: {x: -0.64628696, y: -0, z: -0, w: 0.7630944}
  m_LocalPosition: {x: 0, y: 0, z: 0}
  m_LocalScale: {x: 0.6, y: 0.6, z: 0.6}
  m_Children:
  - {fileID: 1468062661592600248}
  m_Father: {fileID: 0}
  m_RootOrder: 0
  m_LocalEulerAnglesHint: {x: 0, y: 0, z: 0}
--- !u!95 &5847132437030763864
Animator:
  serializedVersion: 3
  m_ObjectHideFlags: 0
  m_CorrespondingSourceObject: {fileID: 0}
  m_PrefabInstance: {fileID: 0}
  m_PrefabAsset: {fileID: 0}
  m_GameObject: {fileID: 5847132437030763871}
  m_Enabled: 1
  m_Avatar: {fileID: 0}
  m_Controller: {fileID: 9100000, guid: 02b7fadd0c17eb54ea6f6989f99b18a3, type: 2}
  m_CullingMode: 0
  m_UpdateMode: 0
  m_ApplyRootMotion: 0
  m_LinearVelocityBlending: 0
  m_WarningMessage: 
  m_HasTransformHierarchy: 1
  m_AllowConstantClipSamplingOptimization: 1
  m_KeepAnimatorControllerStateOnDisable: 0
--- !u!1001 &5847132437395826082
PrefabInstance:
  m_ObjectHideFlags: 0
  serializedVersion: 2
  m_Modification:
    m_TransformParent: {fileID: 5847132437030763865}
    m_Modifications:
    - target: {fileID: -4216859302048453862, guid: 9cfa1bdf61e39fa4ab6011f7c596e3a1,
        type: 3}
      propertyPath: m_LocalPosition.x
      value: 0
      objectReference: {fileID: 0}
    - target: {fileID: -4216859302048453862, guid: 9cfa1bdf61e39fa4ab6011f7c596e3a1,
        type: 3}
      propertyPath: m_LocalPosition.y
      value: -0.04
      objectReference: {fileID: 0}
    - target: {fileID: -4216859302048453862, guid: 9cfa1bdf61e39fa4ab6011f7c596e3a1,
        type: 3}
      propertyPath: m_LocalPosition.z
      value: -0.246
      objectReference: {fileID: 0}
    - target: {fileID: -4216859302048453862, guid: 9cfa1bdf61e39fa4ab6011f7c596e3a1,
        type: 3}
      propertyPath: m_LocalRotation.x
      value: -0
      objectReference: {fileID: 0}
    - target: {fileID: -4216859302048453862, guid: 9cfa1bdf61e39fa4ab6011f7c596e3a1,
        type: 3}
      propertyPath: m_LocalRotation.y
      value: -0
      objectReference: {fileID: 0}
    - target: {fileID: -4216859302048453862, guid: 9cfa1bdf61e39fa4ab6011f7c596e3a1,
        type: 3}
      propertyPath: m_LocalRotation.z
      value: -0
      objectReference: {fileID: 0}
    - target: {fileID: -4216859302048453862, guid: 9cfa1bdf61e39fa4ab6011f7c596e3a1,
        type: 3}
      propertyPath: m_LocalRotation.w
      value: 1
      objectReference: {fileID: 0}
    - target: {fileID: -4216859302048453862, guid: 9cfa1bdf61e39fa4ab6011f7c596e3a1,
        type: 3}
      propertyPath: m_RootOrder
      value: 0
      objectReference: {fileID: 0}
    - target: {fileID: -4216859302048453862, guid: 9cfa1bdf61e39fa4ab6011f7c596e3a1,
        type: 3}
      propertyPath: m_LocalEulerAnglesHint.x
      value: -80.524
      objectReference: {fileID: 0}
    - target: {fileID: -4216859302048453862, guid: 9cfa1bdf61e39fa4ab6011f7c596e3a1,
        type: 3}
      propertyPath: m_LocalEulerAnglesHint.y
      value: 0
      objectReference: {fileID: 0}
    - target: {fileID: -4216859302048453862, guid: 9cfa1bdf61e39fa4ab6011f7c596e3a1,
        type: 3}
      propertyPath: m_LocalEulerAnglesHint.z
      value: 0
      objectReference: {fileID: 0}
    - target: {fileID: -1504981713932161579, guid: 9cfa1bdf61e39fa4ab6011f7c596e3a1,
        type: 3}
      propertyPath: m_Materials.Array.data[0]
      value: 
      objectReference: {fileID: 2100000, guid: 845c2941a665d4441b304827c4032377, type: 2}
    - target: {fileID: -927199367670048503, guid: 9cfa1bdf61e39fa4ab6011f7c596e3a1,
        type: 3}
      propertyPath: m_Name
      value: starw
      objectReference: {fileID: 0}
    m_RemovedComponents: []
  m_SourcePrefab: {fileID: 100100000, guid: 9cfa1bdf61e39fa4ab6011f7c596e3a1, type: 3}
--- !u!4 &1468062661592600248 stripped
Transform:
  m_CorrespondingSourceObject: {fileID: -4216859302048453862, guid: 9cfa1bdf61e39fa4ab6011f7c596e3a1,
    type: 3}
  m_PrefabInstance: {fileID: 5847132437395826082}
  m_PrefabAsset: {fileID: 0}
