%YAML 1.1
%TAG !u! tag:unity3d.com,2011:
--- !u!1 &5749734788035017955
GameObject:
  m_ObjectHideFlags: 0
  m_CorrespondingSourceObject: {fileID: 0}
  m_PrefabInstance: {fileID: 0}
  m_PrefabAsset: {fileID: 0}
  serializedVersion: 6
  m_Component:
  - component: {fileID: 5749734788035017953}
  - component: {fileID: 5749734788035017952}
  m_Layer: 0
  m_Name: strawberry2
  m_TagString: Untagged
  m_Icon: {fileID: 0}
  m_NavMeshLayer: 0
  m_StaticEditorFlags: 0
  m_IsActive: 1
--- !u!4 &5749734788035017953
Transform:
  m_ObjectHideFlags: 0
  m_CorrespondingSourceObject: {fileID: 0}
  m_PrefabInstance: {fileID: 0}
  m_PrefabAsset: {fileID: 0}
  m_GameObject: {fileID: 5749734788035017955}
  m_LocalRotation: {x: 0, y: 0, z: 0, w: 1}
  m_LocalPosition: {x: 21.979824, y: 0.075, z: -0.557}
  m_LocalScale: {x: 1, y: 1, z: 1}
  m_Children:
  - {fileID: 770570309396511298}
  m_Father: {fileID: 0}
  m_RootOrder: 0
  m_LocalEulerAnglesHint: {x: 0, y: 122.36464, z: 0}
--- !u!111 &5749734788035017952
Animation:
  m_ObjectHideFlags: 0
  m_CorrespondingSourceObject: {fileID: 0}
  m_PrefabInstance: {fileID: 0}
  m_PrefabAsset: {fileID: 0}
  m_GameObject: {fileID: 5749734788035017955}
  m_Enabled: 1
  serializedVersion: 3
  m_Animation: {fileID: 7400000, guid: 127c6a78fca6e074db485f659d4717fd, type: 2}
  m_Animations:
  - {fileID: 7400000, guid: 127c6a78fca6e074db485f659d4717fd, type: 2}
  m_WrapMode: 0
  m_PlayAutomatically: 1
  m_AnimatePhysics: 0
  m_CullingType: 0
--- !u!111 &5749734788404810070
Animation:
  m_ObjectHideFlags: 0
  m_CorrespondingSourceObject: {fileID: 0}
  m_PrefabInstance: {fileID: 0}
  m_PrefabAsset: {fileID: 0}
  m_GameObject: {fileID: 4389536591511308369}
  m_Enabled: 1
  serializedVersion: 3
  m_Animation: {fileID: 0}
  m_Animations:
  - {fileID: 7400000, guid: 127c6a78fca6e074db485f659d4717fd, type: 2}
  m_WrapMode: 0
  m_PlayAutomatically: 1
  m_AnimatePhysics: 0
  m_CullingType: 0
--- !u!1001 &5749734788404810072
PrefabInstance:
  m_ObjectHideFlags: 0
  serializedVersion: 2
  m_Modification:
    m_TransformParent: {fileID: 5749734788035017953}
    m_Modifications:
    - target: {fileID: -927199367670048503, guid: 9cfa1bdf61e39fa4ab6011f7c596e3a1,
        type: 3}
      propertyPath: m_Name
      value: starw (1)
      objectReference: {fileID: 0}
    - target: {fileID: -4216859302048453862, guid: 9cfa1bdf61e39fa4ab6011f7c596e3a1,
        type: 3}
      propertyPath: m_LocalPosition.x
      value: 0
      objectReference: {fileID: 0}
    - target: {fileID: -4216859302048453862, guid: 9cfa1bdf61e39fa4ab6011f7c596e3a1,
        type: 3}
      propertyPath: m_LocalPosition.y
      value: -0.040205374
      objectReference: {fileID: 0}
    - target: {fileID: -4216859302048453862, guid: 9cfa1bdf61e39fa4ab6011f7c596e3a1,
        type: 3}
      propertyPath: m_LocalPosition.z
      value: -0.29365617
      objectReference: {fileID: 0}
    - target: {fileID: -4216859302048453862, guid: 9cfa1bdf61e39fa4ab6011f7c596e3a1,
        type: 3}
      propertyPath: m_LocalRotation.x
      value: -0.57924515
      objectReference: {fileID: 0}
    - target: {fileID: -4216859302048453862, guid: 9cfa1bdf61e39fa4ab6011f7c596e3a1,
        type: 3}
      propertyPath: m_LocalRotation.y
      value: -0
      objectReference: {fileID: 0}
    - target: {fileID: -4216859302048453862, guid: 9cfa1bdf61e39fa4ab6011f7c596e3a1,
        type: 3}
      propertyPath: m_LocalRotation.z
      value: -0
      objectReference: {fileID: 0}
    - target: {fileID: -4216859302048453862, guid: 9cfa1bdf61e39fa4ab6011f7c596e3a1,
        type: 3}
      propertyPath: m_LocalRotation.w
      value: 0.8151534
      objectReference: {fileID: 0}
    - target: {fileID: -4216859302048453862, guid: 9cfa1bdf61e39fa4ab6011f7c596e3a1,
        type: 3}
      propertyPath: m_RootOrder
      value: 0
      objectReference: {fileID: 0}
    - target: {fileID: -4216859302048453862, guid: 9cfa1bdf61e39fa4ab6011f7c596e3a1,
        type: 3}
      propertyPath: m_LocalEulerAnglesHint.x
      value: -70.795006
      objectReference: {fileID: 0}
    - target: {fileID: -4216859302048453862, guid: 9cfa1bdf61e39fa4ab6011f7c596e3a1,
        type: 3}
      propertyPath: m_LocalEulerAnglesHint.y
      value: 0
      objectReference: {fileID: 0}
    - target: {fileID: -4216859302048453862, guid: 9cfa1bdf61e39fa4ab6011f7c596e3a1,
        type: 3}
      propertyPath: m_LocalEulerAnglesHint.z
      value: 0
      objectReference: {fileID: 0}
    - target: {fileID: -4216859302048453862, guid: 9cfa1bdf61e39fa4ab6011f7c596e3a1,
        type: 3}
      propertyPath: m_LocalScale.x
      value: 0.6
      objectReference: {fileID: 0}
    - target: {fileID: -4216859302048453862, guid: 9cfa1bdf61e39fa4ab6011f7c596e3a1,
        type: 3}
      propertyPath: m_LocalScale.y
      value: 0.60000026
      objectReference: {fileID: 0}
    - target: {fileID: -4216859302048453862, guid: 9cfa1bdf61e39fa4ab6011f7c596e3a1,
        type: 3}
      propertyPath: m_LocalScale.z
      value: 0.8442405
      objectReference: {fileID: 0}
    - target: {fileID: -1504981713932161579, guid: 9cfa1bdf61e39fa4ab6011f7c596e3a1,
        type: 3}
      propertyPath: m_Materials.Array.data[0]
      value: 
      objectReference: {fileID: 2100000, guid: 845c2941a665d4441b304827c4032377, type: 2}
    m_RemovedComponents: []
  m_SourcePrefab: {fileID: 100100000, guid: 9cfa1bdf61e39fa4ab6011f7c596e3a1, type: 3}
--- !u!1 &4389536591511308369 stripped
GameObject:
  m_CorrespondingSourceObject: {fileID: -927199367670048503, guid: 9cfa1bdf61e39fa4ab6011f7c596e3a1,
    type: 3}
  m_PrefabInstance: {fileID: 5749734788404810072}
  m_PrefabAsset: {fileID: 0}
--- !u!4 &770570309396511298 stripped
Transform:
  m_CorrespondingSourceObject: {fileID: -4216859302048453862, guid: 9cfa1bdf61e39fa4ab6011f7c596e3a1,
    type: 3}
  m_PrefabInstance: {fileID: 5749734788404810072}
  m_PrefabAsset: {fileID: 0}
